Lab 9
…
Summarizing and Visualizing:

3.1

statesnames_a |> 
  pivot_wider(names_from = Sex, values_from = Count) |>
  filter(Name == 'Allison') |>
mutate(
    across(c('F', 'M'), ~replace_na(.x, 0))) |>
  group_by(State) |>
  summarize(across(F:M, sum))

# A tibble: 51 × 3
   State     F     M
   <chr> <int> <int>
 1 AK      232     0
 2 AL     1535     0
 3 AR     1198     0
 4 AZ     1880     0
 5 CA    12413     0
 6 CO     1594     0
 7 CT     1099     0
 8 DC      321     0
 9 DE      294     0
10 FL     4455     0
# … with 41 more rows

3.2

statesnames_a |> 
  filter(Sex == 'F') |>
  pivot_wider(names_from = Sex, values_from = Count) |>
  filter(Name == 'Allison')  |>
  group_by(State) |>
  summarize(sum(F)) 

# A tibble: 51 × 2
   State `sum(F)`
   <chr>    <int>
 1 AK         232
 2 AL        1535
 3 AR        1198
 4 AZ        1880
 5 CA       12413
 6 CO        1594
 7 CT        1099
 8 DC         321
 9 DE         294
10 FL        4455
# … with 41 more rows
…
