Lab3: Hip-Hop
…
[1] 10752

There are 10752 rows in this data set. This is due to there being 168 people and 64 words. so for each word, 168 people (or rows) will be answering it.

3.

REFELCTION:

Upon looking back on this question, it made me more away to take a glance at the meta data about the lab. I think after reflecting on this it overall allowed me to better understand the data set that was in use and as a result better understand the data analytics-techniques that we used here. I will now continue to inspect the data before I use it in the future.

hiphop |>
filter(city == 0, county == 0)

# A tibble: 384 × 38
   word    subj  sex     age ethnic  city county  intl vocal class…¹  folk  rock
   <chr>   <chr> <chr> <dbl> <chr>  <dbl>  <dbl> <dbl> <dbl>   <dbl> <dbl> <dbl>
 1 [to be… p145  Male     18 white      0      0     0     0       0     0    15
 2 [to be… p147  Fema…    20 asian      0      0     0     0       4     0     0
 3 [to be… p11   Fema…    18 asian      0      0    15     0       0     0     0
 4 [to be… p43   Fema…    18 asian      0      0     6     0       0     0     0
 5 [to be… p135  Fema…    18 asian      0      0     0     0       3     0     0
 6 [to be… p81   Fema…    18 asian      0      0     0     0       2     0     0
 7 5-0     p145  Male     18 white      0      0     0     0       0     0    15
 8 5-0     p147  Fema…    20 asian      0      0     0     0       4     0     0
 9 5-0     p11   Fema…    18 asian      0      0    15     0       0     0     0
10 5-0     p43   Fema…    18 asian      0      0     6     0       0     0     0
# … with 374 more rows, 26 more variables: country <dbl>, pop <dbl>,
#   alternative <dbl>, hiphop <dbl>, unclassifiable <dbl>, countyBlack <dbl>,
#   jayz <dbl>, barkley <dbl>, boondocks <dbl>, monique <dbl>, bieber <dbl>,
#   asianMove <dbl>, blackMove <dbl>, hispanicMove <dbl>, nativeMove <dbl>,
#   SAAMEMove <dbl>, whiteMove <dbl>, blackWeekly <dbl>, jayz1 <dbl>,
#   boondocks1 <dbl>, familiarity <dbl>, trial <dbl>, fam1 <dbl>,
#   popularityScore <dbl>, numPreferredArtists <dbl>, …
…
Min: ghost, A-town, ay yo trip, beezy, bones, boughie, break someone out, chedda, cheese

hiphopclean |>
filter(age > 20) |>
group_by(word) |>
summarize(fammed = median(familiarity)) |>
slice_min(fammed)

# A tibble: 56 × 2
   word              fammed
   <chr>              <dbl>
 1 [to be] ghost          1
 2 A-town                 1
 3 ay yo trip             1
 4 beezy                  1
 5 bones                  1
 6 boughie                1
 7 break someone out      1
 8 catch the vapors       1
 9 chedda                 1
10 cheese                 1
# … with 46 more rows
…
Min: ghost, 5-0, ay yo trip, beezy, bones, boughie, break someone out, catch the vapors, chedda, cheese

hiphopclean |>
filter(sex == 'Female',
       ethnic1 == 'non-white') |>
group_by(word) |>
summarize(fammed = median(familiarity)) |>
slice_min(fammed)

# A tibble: 49 × 2
   word              fammed
   <chr>              <dbl>
 1 [to be] ghost          1
 2 5-0                    1
 3 ay yo trip             1
 4 beezy                  1
 5 bones                  1
 6 boughie                1
 7 break someone out      1
 8 catch the vapors       1
 9 chedda                 1
10 cheese                 1
# … with 39 more rows
…
Min: ashy, ay yo trip, beezy, bones, boo, boughie, break someone out, catch the vapors, chedda, cheese

hiphopclean |>
filter(sex == 'Male',
       ethnic1 == 'white', 
       age > 30) |>
group_by(word) |>
summarize(fammed = median(familiarity)) |>
slice_min(fammed)

# A tibble: 52 × 2
   word              fammed
   <chr>              <dbl>
 1 ashy                   1
 2 ay yo trip             1
 3 beezy                  1
 4 bones                  1
 5 boo                    1
 6 boughie                1
 7 break someone out      1
 8 catch the vapors       1
 9 chedda                 1
10 cheese                 1
# … with 42 more rows
…
