Lab4: Avocado Prices
…
REFELCTION:

Upon looking back on this question, I think the overall application of chaining and piping all the anti joins together is important because it shows how exactly this joins can be used to clean data in a faster way. Also it is important to include the states Minnesota and Michigan and I’ve added the great lakes to the region. For the future I will chain the anti-joins to optimize the code. I’ve added a new section below in which I have done this:

avocado |> 
  anti_join(major_region, by = c('region' = 'major_region')) |>
  anti_join(major_state, by = c('region' = 'major_state')) |>
  filter(region != 'TotalUS') |>
  rename("Small" =  `4046`,
         "Large" =  `4225`,
         "Extra Large" = `4770`)

# A tibble: 14,196 × 14
    ...1 Date       Avera…¹ Total…² Small  Large Extra…³ Total…⁴ Small…⁵ Large…⁶
   <dbl> <date>       <dbl>   <dbl> <dbl>  <dbl>   <dbl>   <dbl>   <dbl>   <dbl>
 1     0 2015-12-27    1.33  64237. 1037. 5.45e4    48.2   8697.   8604.    93.2
 2     1 2015-12-20    1.35  54877.  674. 4.46e4    58.3   9506.   9408.    97.5
 3     2 2015-12-13    0.93 118220.  795. 1.09e5   130.    8145.   8042.   103. 
 4     3 2015-12-06    1.08  78992. 1132  7.20e4    72.6   5811.   5677.   134. 
 5     4 2015-11-29    1.28  51040.  941. 4.38e4    75.8   6184.   5986.   198. 
 6     5 2015-11-22    1.26  55980. 1184. 4.81e4    43.6   6684.   6556.   127. 
 7     6 2015-11-15    0.99  83454. 1369. 7.37e4    93.3   8319.   8197.   122. 
 8     7 2015-11-08    0.98 109428.  704. 1.02e5    80     6829.   6267.   562. 
 9     8 2015-11-01    1.02  99811. 1022. 8.73e4    85.3  11388.  11105.   284. 
10     9 2015-10-25    1.07  74339.  842. 6.48e4   113     8626.   8061.   564. 
# … with 14,186 more rows, 4 more variables: `XLarge Bags` <dbl>, type <chr>,
#   year <dbl>, region <chr>, and abbreviated variable names ¹​AveragePrice,
#   ²​`Total Volume`, ³​`Extra Large`, ⁴​`Total Bags`, ⁵​`Small Bags`,
#   ⁶​`Large Bags`
…
